{
    "count": 337,
    "next": "https://ll.thespacedevs.com/2.2.0/launch/upcoming/?limit=10&mode=list&offset=10",
    "previous": null,
    "results": [
        {
            "id": "9d90b9bc-9c62-4618-8514-6f835b4a2030",
            "url": "https://ll.thespacedevs.com/2.2.0/launch/9d90b9bc-9c62-4618-8514-6f835b4a2030/",
            "slug": "atlas-v-551-project-kuiper-ka-02",
            "name": "Atlas V 551 | Project Kuiper (KA-02)",
            "status": {
                "id": 1,
                "name": "Go for Launch",
                "abbrev": "Go",
                "description": "Current T-0 confirmed by official or reliable sources."
            },
            "last_updated": "2025-06-16T10:24:53Z",
            "net": "2025-06-16T17:25:30Z",
            "net_precision": {
                "id": 0,
                "name": "Second",
                "abbrev": "SEC",
                "description": "The T-0 is accurate to the second."
            },
            "window_end": "2025-06-16T17:54:30Z",
            "window_start": "2025-06-16T17:25:30Z",
            "lsp_name": "United Launch Alliance",
            "mission": "Project Kuiper (KA-02)",
            "mission_type": "Communications",
            "pad": "Space Launch Complex 41",
            "location": "Cape Canaveral SFS, FL, USA",
            "landing": null,
            "landing_success": null,
            "launcher": null,
            "orbit": null,
            "image": "https://thespacedevs-prod.nyc3.digitaloceanspaces.com/media/images/atlas2520v2520551_image_20190224012316.jpeg",
            "infographic": null,
            "type": "list"
        },
        {
            "id": "b9c7d6a5-49cc-4ce2-b1ef-1a4f3d049658",
            "url": "https://ll.thespacedevs.com/2.2.0/launch/b9c7d6a5-49cc-4ce2-b1ef-1a4f3d049658/",
            "slug": "falcon-9-block-5-starlink-group-15-9",
            "name": "Falcon 9 Block 5 | Starlink Group 15-9",
            "status": {
                "id": 8,
                "name": "To Be Confirmed",
                "abbrev": "TBC",
                "description": "Awaiting official confirmation - current date is known with some certainty."
            },
            "last_updated": "2025-06-16T05:49:47Z",
            "net": "2025-06-17T03:36:50Z",
            "net_precision": {
                "id": 0,
                "name": "Second",
                "abbrev": "SEC",
                "description": "The T-0 is accurate to the second."
            },
            "window_end": "2025-06-17T04:07:19Z",
            "window_start": "2025-06-17T03:36:50Z",
            "lsp_name": "SpaceX",
            "mission": "Starlink Group 15-9",
            "mission_type": "Communications",
            "pad": "Space Launch Complex 4E",
            "location": "Vandenberg SFB, CA, USA",
            "landing": null,
            "landing_success": null,
            "launcher": null,
            "orbit": null,
            "image": "https://thespacedevs-prod.nyc3.digitaloceanspaces.com/media/images/falcon2520925_image_20221009234147.png",
            "infographic": null,
            "type": "list"
        },
        {
            "id": "35c0c65c-3077-45e8-a374-790f7d202ccb",
            "url": "https://ll.thespacedevs.com/2.2.0/launch/35c0c65c-3077-45e8-a374-790f7d202ccb/",
            "slug": "falcon-9-block-5-starlink-group-10-18",
            "name": "Falcon 9 Block 5 | Starlink Group 10-18",
            "status": {
                "id": 8,
                "name": "To Be Confirmed",
                "abbrev": "TBC",
                "description": "Awaiting official confirmation - current date is known with some certainty."
            },
            "last_updated": "2025-06-14T09:01:56Z",
            "net": "2025-06-18T05:38:00Z",
            "net_precision": {
                "id": 2,
                "name": "Hour",
                "abbrev": "HR",
                "description": "The T-0 is accurate to the hour."
            },
            "window_end": "2025-06-18T10:08:00Z",
            "window_start": "2025-06-18T05:38:00Z",
            "lsp_name": "SpaceX",
            "mission": "Starlink Group 10-18",
            "mission_type": "Communications",
            "pad": "Space Launch Complex 40",
            "location": "Cape Canaveral SFS, FL, USA",
            "landing": null,
            "landing_success": null,
            "launcher": null,
            "orbit": null,
            "image": "https://thespacedevs-prod.nyc3.digitaloceanspaces.com/media/images/falcon2520925_image_20221009234147.png",
            "infographic": null,
            "type": "list"
        },
        {
            "id": "4e6e74a5-6ffb-4dc3-8f39-90545067bf12",
            "url": "https://ll.thespacedevs.com/2.2.0/launch/4e6e74a5-6ffb-4dc3-8f39-90545067bf12/",
            "slug": "angara-a5briz-m-kosmos-unknown-payload",
            "name": "Angara A5/Briz-M | Kosmos (Unknown Payload)",
            "status": {
                "id": 1,
                "name": "Go for Launch",
                "abbrev": "Go",
                "description": "Current T-0 confirmed by official or reliable sources."
            },
            "last_updated": "2025-06-15T01:32:26Z",
            "net": "2025-06-19T03:00:00Z",
            "net_precision": {
                "id": 2,
                "name": "Hour",
                "abbrev": "HR",
                "description": "The T-0 is accurate to the hour."
            },
            "window_end": "2025-06-19T04:00:00Z",
            "window_start": "2025-06-19T02:30:00Z",
            "lsp_name": "Russian Space Forces",
            "mission": "Kosmos (Unknown Payload)",
            "mission_type": "Government/Top Secret",
            "pad": "35/1",
            "location": "Plesetsk Cosmodrome, Russian Federation",
            "landing": null,
            "landing_success": null,
            "launcher": null,
            "orbit": null,
            "image": "https://thespacedevs-prod.nyc3.digitaloceanspaces.com/media/images/angara_a52fbri_image_20240102171438.jpg",
            "infographic": null,
            "type": "list"
        },
        {
            "id": "0805af04-c2ea-4750-9eb4-f24f89eeb5d6",
            "url": "https://ll.thespacedevs.com/2.2.0/launch/0805af04-c2ea-4750-9eb4-f24f89eeb5d6/",
            "slug": "falcon-9-block-5-axiom-space-mission-4",
            "name": "Falcon 9 Block 5 | Axiom Space Mission 4",
            "status": {
                "id": 8,
                "name": "To Be Confirmed",
                "abbrev": "TBC",
                "description": "Awaiting official confirmation - current date is known with some certainty."
            },
            "last_updated": "2025-06-15T01:28:45Z",
            "net": "2025-06-19T08:53:00Z",
            "net_precision": {
                "id": 1,
                "name": "Minute",
                "abbrev": "MIN",
                "description": "The T-0 is accurate to the minute."
            },
            "window_end": "2025-06-19T08:53:00Z",
            "window_start": "2025-06-19T08:53:00Z",
            "lsp_name": "SpaceX",
            "mission": "Axiom Space Mission 4",
            "mission_type": "Tourism",
            "pad": "Launch Complex 39A",
            "location": "Kennedy Space Center, FL, USA",
            "landing": null,
            "landing_success": null,
            "launcher": null,
            "orbit": null,
            "image": "https://thespacedevs-prod.nyc3.digitaloceanspaces.com/media/images/crew_dragon_at__image_20250611155004.jpg",
            "infographic": null,
            "type": "list"
        },
        {
            "id": "f78364d9-3c60-4c72-a410-84a499233db0",
            "url": "https://ll.thespacedevs.com/2.2.0/launch/f78364d9-3c60-4c72-a410-84a499233db0/",
            "slug": "falcon-9-block-5-starlink-group-10-23",
            "name": "Falcon 9 Block 5 | Starlink Group 10-23",
            "status": {
                "id": 8,
                "name": "To Be Confirmed",
                "abbrev": "TBC",
                "description": "Awaiting official confirmation - current date is known with some certainty."
            },
            "last_updated": "2025-06-14T09:01:58Z",
            "net": "2025-06-20T06:32:00Z",
            "net_precision": {
                "id": 2,
                "name": "Hour",
                "abbrev": "HR",
                "description": "The T-0 is accurate to the hour."
            },
            "window_end": "2025-06-20T11:02:00Z",
            "window_start": "2025-06-20T06:32:00Z",
            "lsp_name": "SpaceX",
            "mission": "Starlink Group 10-23",
            "mission_type": "Communications",
            "pad": "Space Launch Complex 40",
            "location": "Cape Canaveral SFS, FL, USA",
            "landing": null,
            "landing_success": null,
            "launcher": null,
            "orbit": null,
            "image": "https://thespacedevs-prod.nyc3.digitaloceanspaces.com/media/images/falcon2520925_image_20221009234147.png",
            "infographic": null,
            "type": "list"
        },
        {
            "id": "7339173c-ff5d-4cd1-bd08-ed92f8362745",
            "url": "https://ll.thespacedevs.com/2.2.0/launch/7339173c-ff5d-4cd1-bd08-ed92f8362745/",
            "slug": "long-march-3be-unknown-payload",
            "name": "Long March 3B/E | Unknown Payload",
            "status": {
                "id": 1,
                "name": "Go for Launch",
                "abbrev": "Go",
                "description": "Current T-0 confirmed by official or reliable sources."
            },
            "last_updated": "2025-06-11T06:45:03Z",
            "net": "2025-06-20T12:35:00Z",
            "net_precision": {
                "id": 2,
                "name": "Hour",
                "abbrev": "HR",
                "description": "The T-0 is accurate to the hour."
            },
            "window_end": "2025-06-20T13:02:00Z",
            "window_start": "2025-06-20T12:27:00Z",
            "lsp_name": "China Aerospace Science and Technology Corporation",
            "mission": "Unknown Payload",
            "mission_type": "Unknown",
            "pad": "Launch Complex 3 (LC-3/LA-1)",
            "location": "Xichang Satellite Launch Center, People's Republic of China",
            "landing": null,
            "landing_success": null,
            "launcher": null,
            "orbit": null,
            "image": "https://thespacedevs-prod.nyc3.digitaloceanspaces.com/media/images/long2520march25203_image_20190222031215.jpeg",
            "infographic": null,
            "type": "list"
        },
        {
            "id": "0d3c2ff0-3b31-4066-8b33-5759b6866c39",
            "url": "https://ll.thespacedevs.com/2.2.0/launch/0d3c2ff0-3b31-4066-8b33-5759b6866c39/",
            "slug": "falcon-9-block-5-transporter-14-dedicated-sso-ride",
            "name": "Falcon 9 Block 5 | Transporter 14 (Dedicated SSO Rideshare)",
            "status": {
                "id": 8,
                "name": "To Be Confirmed",
                "abbrev": "TBC",
                "description": "Awaiting official confirmation - current date is known with some certainty."
            },
            "last_updated": "2025-06-12T16:53:30Z",
            "net": "2025-06-20T21:19:00Z",
            "net_precision": {
                "id": 1,
                "name": "Minute",
                "abbrev": "MIN",
                "description": "The T-0 is accurate to the minute."
            },
            "window_end": "2025-06-20T22:38:00Z",
            "window_start": "2025-06-20T21:19:00Z",
            "lsp_name": "SpaceX",
            "mission": "Transporter 14 (Dedicated SSO Rideshare)",
            "mission_type": "Dedicated Rideshare",
            "pad": "Space Launch Complex 4E",
            "location": "Vandenberg SFB, CA, USA",
            "landing": null,
            "landing_success": null,
            "launcher": null,
            "orbit": null,
            "image": "https://thespacedevs-prod.nyc3.digitaloceanspaces.com/media/images/falcon_9_image_20230807133459.jpeg",
            "infographic": null,
            "type": "list"
        },
        {
            "id": "b6283d07-cfec-41fb-a27d-ade407b46393",
            "url": "https://ll.thespacedevs.com/2.2.0/launch/b6283d07-cfec-41fb-a27d-ade407b46393/",
            "slug": "new-shepard-ns-33",
            "name": "New Shepard | NS-33",
            "status": {
                "id": 8,
                "name": "To Be Confirmed",
                "abbrev": "TBC",
                "description": "Awaiting official confirmation - current date is known with some certainty."
            },
            "last_updated": "2025-06-12T17:15:50Z",
            "net": "2025-06-21T12:30:00Z",
            "net_precision": {
                "id": 2,
                "name": "Hour",
                "abbrev": "HR",
                "description": "The T-0 is accurate to the hour."
            },
            "window_end": "2025-06-21T20:30:00Z",
            "window_start": "2025-06-21T12:30:00Z",
            "lsp_name": "Blue Origin",
            "mission": "NS-33",
            "mission_type": "Tourism",
            "pad": "West Texas Suborbital Launch Site/ Corn Ranch",
            "location": "Corn Ranch, Van Horn, TX, USA",
            "landing": null,
            "landing_success": null,
            "launcher": null,
            "orbit": null,
            "image": "https://thespacedevs-prod.nyc3.digitaloceanspaces.com/media/images/new_shepard_lif_image_20240621062033.jpeg",
            "infographic": null,
            "type": "list"
        },
        {
            "id": "87d3fde4-e6f6-4e8b-bc9a-d5c28915acb3",
            "url": "https://ll.thespacedevs.com/2.2.0/launch/87d3fde4-e6f6-4e8b-bc9a-d5c28915acb3/",
            "slug": "h-iia-202-gosat-gw",
            "name": "H-IIA 202 | GOSAT-GW",
            "status": {
                "id": 1,
                "name": "Go for Launch",
                "abbrev": "Go",
                "description": "Current T-0 confirmed by official or reliable sources."
            },
            "last_updated": "2025-04-25T05:11:55Z",
            "net": "2025-06-23T16:33:03Z",
            "net_precision": {
                "id": 0,
                "name": "Second",
                "abbrev": "SEC",
                "description": "The T-0 is accurate to the second."
            },
            "window_end": "2025-06-23T16:52:00Z",
            "window_start": "2025-06-23T16:33:03Z",
            "lsp_name": "Japan Aerospace Exploration Agency",
            "mission": "GOSAT-GW",
            "mission_type": "Earth Science",
            "pad": "Yoshinobu Launch Complex LP-1",
            "location": "Tanegashima Space Center, Japan",
            "landing": null,
            "landing_success": null,
            "launcher": null,
            "orbit": null,
            "image": "https://thespacedevs-prod.nyc3.digitaloceanspaces.com/media/images/h-iia_202_lifto_image_20240325123250.jpg",
            "infographic": null,
            "type": "list"
        }
    ]
}